TimeQuest Timing Analyzer report for part1_TCounter
Tue Sep 02 14:06:26 2014
Quartus II 64-Bit Version 13.0.1 Build 232 06/12/2013 Service Pack 1 SJ Web Edition


---------------------
; Table of Contents ;
---------------------
  1. Legal Notice
  2. TimeQuest Timing Analyzer Summary
  3. Parallel Compilation
  4. Clocks
  5. Slow Model Fmax Summary
  6. Slow Model Setup Summary
  7. Slow Model Hold Summary
  8. Slow Model Recovery Summary
  9. Slow Model Removal Summary
 10. Slow Model Minimum Pulse Width Summary
 11. Slow Model Setup: 'KEY[0]'
 12. Slow Model Hold: 'KEY[0]'
 13. Slow Model Minimum Pulse Width: 'KEY[0]'
 14. Setup Times
 15. Hold Times
 16. Clock to Output Times
 17. Minimum Clock to Output Times
 18. Fast Model Setup Summary
 19. Fast Model Hold Summary
 20. Fast Model Recovery Summary
 21. Fast Model Removal Summary
 22. Fast Model Minimum Pulse Width Summary
 23. Fast Model Setup: 'KEY[0]'
 24. Fast Model Hold: 'KEY[0]'
 25. Fast Model Minimum Pulse Width: 'KEY[0]'
 26. Setup Times
 27. Hold Times
 28. Clock to Output Times
 29. Minimum Clock to Output Times
 30. Multicorner Timing Analysis Summary
 31. Setup Times
 32. Hold Times
 33. Clock to Output Times
 34. Minimum Clock to Output Times
 35. Setup Transfers
 36. Hold Transfers
 37. Report TCCS
 38. Report RSKM
 39. Unconstrained Paths
 40. TimeQuest Timing Analyzer Messages



----------------
; Legal Notice ;
----------------
Copyright (C) 1991-2013 Altera Corporation
Your use of Altera Corporation's design tools, logic functions 
and other software and tools, and its AMPP partner logic 
functions, and any output files from any of the foregoing 
(including device programming or simulation files), and any 
associated documentation or information are expressly subject 
to the terms and conditions of the Altera Program License 
Subscription Agreement, Altera MegaCore Function License 
Agreement, or other applicable license agreement, including, 
without limitation, that your use is for the sole purpose of 
programming logic devices manufactured by Altera and sold by 
Altera or its authorized distributors.  Please refer to the 
applicable agreement for further details.



+----------------------------------------------------------------------------------------+
; TimeQuest Timing Analyzer Summary                                                      ;
+--------------------+-------------------------------------------------------------------+
; Quartus II Version ; Version 13.0.1 Build 232 06/12/2013 Service Pack 1 SJ Web Edition ;
; Revision Name      ; part1_TCounter                                                    ;
; Device Family      ; Cyclone II                                                        ;
; Device Name        ; EP2C20F484C7                                                      ;
; Timing Models      ; Final                                                             ;
; Delay Model        ; Combined                                                          ;
; Rise/Fall Delays   ; Unavailable                                                       ;
+--------------------+-------------------------------------------------------------------+


Parallel compilation was disabled, but you have multiple processors available. Enable parallel compilation to reduce compilation time.
+-------------------------------------+
; Parallel Compilation                ;
+----------------------------+--------+
; Processors                 ; Number ;
+----------------------------+--------+
; Number detected on machine ; 4      ;
; Maximum allowed            ; 1      ;
+----------------------------+--------+


+------------------------------------------------------------------------------------------------------------------------------------------------------------------------------------+
; Clocks                                                                                                                                                                             ;
+------------+------+--------+------------+-------+-------+------------+-----------+-------------+-------+--------+-----------+------------+----------+--------+--------+------------+
; Clock Name ; Type ; Period ; Frequency  ; Rise  ; Fall  ; Duty Cycle ; Divide by ; Multiply by ; Phase ; Offset ; Edge List ; Edge Shift ; Inverted ; Master ; Source ; Targets    ;
+------------+------+--------+------------+-------+-------+------------+-----------+-------------+-------+--------+-----------+------------+----------+--------+--------+------------+
; KEY[0]     ; Base ; 1.000  ; 1000.0 MHz ; 0.000 ; 0.500 ;            ;           ;             ;       ;        ;           ;            ;          ;        ;        ; { KEY[0] } ;
+------------+------+--------+------------+-------+-------+------------+-----------+-------------+-------+--------+-----------+------------+----------+--------+--------+------------+


+-----------------------------------------------------------------------------------------------------------+
; Slow Model Fmax Summary                                                                                   ;
+------------+-----------------+------------+---------------------------------------------------------------+
; Fmax       ; Restricted Fmax ; Clock Name ; Note                                                          ;
+------------+-----------------+------------+---------------------------------------------------------------+
; 462.32 MHz ; 405.02 MHz      ; KEY[0]     ; limit due to minimum period restriction (max I/O toggle rate) ;
+------------+-----------------+------------+---------------------------------------------------------------+
This panel reports FMAX for every clock in the design, regardless of the user-specified clock periods.  FMAX is only computed for paths where the source and destination registers or ports are driven by the same clock.  Paths of different clocks, including generated clocks, are ignored.  For paths between a clock and its inversion, FMAX is computed as if the rising and falling edges are scaled along with FMAX, such that the duty cycle (in terms of a percentage) is maintained. Altera recommends that you always use clock constraints and other slack reports for sign-off analysis.


+---------------------------------+
; Slow Model Setup Summary        ;
+--------+--------+---------------+
; Clock  ; Slack  ; End Point TNS ;
+--------+--------+---------------+
; KEY[0] ; -1.163 ; -5.623        ;
+--------+--------+---------------+


+--------------------------------+
; Slow Model Hold Summary        ;
+--------+-------+---------------+
; Clock  ; Slack ; End Point TNS ;
+--------+-------+---------------+
; KEY[0] ; 0.445 ; 0.000         ;
+--------+-------+---------------+


-------------------------------
; Slow Model Recovery Summary ;
-------------------------------
No paths to report.


------------------------------
; Slow Model Removal Summary ;
------------------------------
No paths to report.


+----------------------------------------+
; Slow Model Minimum Pulse Width Summary ;
+--------+--------+----------------------+
; Clock  ; Slack  ; End Point TNS        ;
+--------+--------+----------------------+
; KEY[0] ; -1.469 ; -11.245              ;
+--------+--------+----------------------+


+------------------------------------------------------------------------------------------------------+
; Slow Model Setup: 'KEY[0]'                                                                           ;
+--------+-----------+-----------+--------------+-------------+--------------+------------+------------+
; Slack  ; From Node ; To Node   ; Launch Clock ; Latch Clock ; Relationship ; Clock Skew ; Data Delay ;
+--------+-----------+-----------+--------------+-------------+--------------+------------+------------+
; -1.163 ; T_FF:T2|Q ; T_FF:T6|Q ; KEY[0]       ; KEY[0]      ; 1.000        ; 0.000      ; 2.201      ;
; -1.162 ; T_FF:T2|Q ; T_FF:T7|Q ; KEY[0]       ; KEY[0]      ; 1.000        ; 0.000      ; 2.200      ;
; -1.130 ; T_FF:T2|Q ; T_FF:T5|Q ; KEY[0]       ; KEY[0]      ; 1.000        ; 0.000      ; 2.168      ;
; -1.111 ; T_FF:T1|Q ; T_FF:T4|Q ; KEY[0]       ; KEY[0]      ; 1.000        ; 0.000      ; 2.149      ;
; -1.017 ; T_FF:T1|Q ; T_FF:T6|Q ; KEY[0]       ; KEY[0]      ; 1.000        ; 0.000      ; 2.055      ;
; -1.016 ; T_FF:T3|Q ; T_FF:T6|Q ; KEY[0]       ; KEY[0]      ; 1.000        ; 0.000      ; 2.054      ;
; -1.016 ; T_FF:T1|Q ; T_FF:T7|Q ; KEY[0]       ; KEY[0]      ; 1.000        ; 0.000      ; 2.054      ;
; -1.015 ; T_FF:T3|Q ; T_FF:T7|Q ; KEY[0]       ; KEY[0]      ; 1.000        ; 0.000      ; 2.053      ;
; -0.992 ; T_FF:T1|Q ; T_FF:T5|Q ; KEY[0]       ; KEY[0]      ; 1.000        ; 0.000      ; 2.030      ;
; -0.983 ; T_FF:T3|Q ; T_FF:T5|Q ; KEY[0]       ; KEY[0]      ; 1.000        ; 0.000      ; 2.021      ;
; -0.970 ; T_FF:T0|Q ; T_FF:T4|Q ; KEY[0]       ; KEY[0]      ; 1.000        ; 0.000      ; 2.008      ;
; -0.920 ; T_FF:T5|Q ; T_FF:T5|Q ; KEY[0]       ; KEY[0]      ; 1.000        ; 0.000      ; 1.958      ;
; -0.917 ; T_FF:T5|Q ; T_FF:T6|Q ; KEY[0]       ; KEY[0]      ; 1.000        ; 0.000      ; 1.955      ;
; -0.916 ; T_FF:T5|Q ; T_FF:T7|Q ; KEY[0]       ; KEY[0]      ; 1.000        ; 0.000      ; 1.954      ;
; -0.876 ; T_FF:T0|Q ; T_FF:T6|Q ; KEY[0]       ; KEY[0]      ; 1.000        ; 0.000      ; 1.914      ;
; -0.875 ; T_FF:T0|Q ; T_FF:T7|Q ; KEY[0]       ; KEY[0]      ; 1.000        ; 0.000      ; 1.913      ;
; -0.851 ; T_FF:T0|Q ; T_FF:T5|Q ; KEY[0]       ; KEY[0]      ; 1.000        ; 0.000      ; 1.889      ;
; -0.742 ; T_FF:T4|Q ; T_FF:T6|Q ; KEY[0]       ; KEY[0]      ; 1.000        ; 0.000      ; 1.780      ;
; -0.741 ; T_FF:T4|Q ; T_FF:T7|Q ; KEY[0]       ; KEY[0]      ; 1.000        ; 0.000      ; 1.779      ;
; -0.741 ; T_FF:T4|Q ; T_FF:T5|Q ; KEY[0]       ; KEY[0]      ; 1.000        ; 0.000      ; 1.779      ;
; -0.722 ; T_FF:T2|Q ; T_FF:T4|Q ; KEY[0]       ; KEY[0]      ; 1.000        ; 0.000      ; 1.760      ;
; -0.575 ; T_FF:T3|Q ; T_FF:T4|Q ; KEY[0]       ; KEY[0]      ; 1.000        ; 0.000      ; 1.613      ;
; -0.531 ; T_FF:T1|Q ; T_FF:T3|Q ; KEY[0]       ; KEY[0]      ; 1.000        ; 0.000      ; 1.569      ;
; -0.526 ; T_FF:T1|Q ; T_FF:T2|Q ; KEY[0]       ; KEY[0]      ; 1.000        ; 0.000      ; 1.564      ;
; -0.443 ; T_FF:T2|Q ; T_FF:T3|Q ; KEY[0]       ; KEY[0]      ; 1.000        ; 0.000      ; 1.481      ;
; -0.390 ; T_FF:T0|Q ; T_FF:T3|Q ; KEY[0]       ; KEY[0]      ; 1.000        ; 0.000      ; 1.428      ;
; -0.385 ; T_FF:T0|Q ; T_FF:T2|Q ; KEY[0]       ; KEY[0]      ; 1.000        ; 0.000      ; 1.423      ;
; -0.276 ; T_FF:T6|Q ; T_FF:T7|Q ; KEY[0]       ; KEY[0]      ; 1.000        ; 0.000      ; 1.314      ;
; 0.117  ; T_FF:T0|Q ; T_FF:T1|Q ; KEY[0]       ; KEY[0]      ; 1.000        ; 0.000      ; 0.921      ;
; 0.307  ; T_FF:T0|Q ; T_FF:T0|Q ; KEY[0]       ; KEY[0]      ; 1.000        ; 0.000      ; 0.731      ;
; 0.307  ; T_FF:T6|Q ; T_FF:T6|Q ; KEY[0]       ; KEY[0]      ; 1.000        ; 0.000      ; 0.731      ;
; 0.307  ; T_FF:T7|Q ; T_FF:T7|Q ; KEY[0]       ; KEY[0]      ; 1.000        ; 0.000      ; 0.731      ;
; 0.307  ; T_FF:T4|Q ; T_FF:T4|Q ; KEY[0]       ; KEY[0]      ; 1.000        ; 0.000      ; 0.731      ;
; 0.307  ; T_FF:T3|Q ; T_FF:T3|Q ; KEY[0]       ; KEY[0]      ; 1.000        ; 0.000      ; 0.731      ;
; 0.307  ; T_FF:T2|Q ; T_FF:T2|Q ; KEY[0]       ; KEY[0]      ; 1.000        ; 0.000      ; 0.731      ;
; 0.307  ; T_FF:T1|Q ; T_FF:T1|Q ; KEY[0]       ; KEY[0]      ; 1.000        ; 0.000      ; 0.731      ;
+--------+-----------+-----------+--------------+-------------+--------------+------------+------------+


+-----------------------------------------------------------------------------------------------------+
; Slow Model Hold: 'KEY[0]'                                                                           ;
+-------+-----------+-----------+--------------+-------------+--------------+------------+------------+
; Slack ; From Node ; To Node   ; Launch Clock ; Latch Clock ; Relationship ; Clock Skew ; Data Delay ;
+-------+-----------+-----------+--------------+-------------+--------------+------------+------------+
; 0.445 ; T_FF:T0|Q ; T_FF:T0|Q ; KEY[0]       ; KEY[0]      ; 0.000        ; 0.000      ; 0.731      ;
; 0.445 ; T_FF:T1|Q ; T_FF:T1|Q ; KEY[0]       ; KEY[0]      ; 0.000        ; 0.000      ; 0.731      ;
; 0.445 ; T_FF:T2|Q ; T_FF:T2|Q ; KEY[0]       ; KEY[0]      ; 0.000        ; 0.000      ; 0.731      ;
; 0.445 ; T_FF:T3|Q ; T_FF:T3|Q ; KEY[0]       ; KEY[0]      ; 0.000        ; 0.000      ; 0.731      ;
; 0.445 ; T_FF:T4|Q ; T_FF:T4|Q ; KEY[0]       ; KEY[0]      ; 0.000        ; 0.000      ; 0.731      ;
; 0.445 ; T_FF:T6|Q ; T_FF:T6|Q ; KEY[0]       ; KEY[0]      ; 0.000        ; 0.000      ; 0.731      ;
; 0.445 ; T_FF:T7|Q ; T_FF:T7|Q ; KEY[0]       ; KEY[0]      ; 0.000        ; 0.000      ; 0.731      ;
; 0.635 ; T_FF:T0|Q ; T_FF:T1|Q ; KEY[0]       ; KEY[0]      ; 0.000        ; 0.000      ; 0.921      ;
; 1.028 ; T_FF:T6|Q ; T_FF:T7|Q ; KEY[0]       ; KEY[0]      ; 0.000        ; 0.000      ; 1.314      ;
; 1.137 ; T_FF:T0|Q ; T_FF:T2|Q ; KEY[0]       ; KEY[0]      ; 0.000        ; 0.000      ; 1.423      ;
; 1.142 ; T_FF:T0|Q ; T_FF:T3|Q ; KEY[0]       ; KEY[0]      ; 0.000        ; 0.000      ; 1.428      ;
; 1.195 ; T_FF:T2|Q ; T_FF:T3|Q ; KEY[0]       ; KEY[0]      ; 0.000        ; 0.000      ; 1.481      ;
; 1.278 ; T_FF:T1|Q ; T_FF:T2|Q ; KEY[0]       ; KEY[0]      ; 0.000        ; 0.000      ; 1.564      ;
; 1.283 ; T_FF:T1|Q ; T_FF:T3|Q ; KEY[0]       ; KEY[0]      ; 0.000        ; 0.000      ; 1.569      ;
; 1.327 ; T_FF:T3|Q ; T_FF:T4|Q ; KEY[0]       ; KEY[0]      ; 0.000        ; 0.000      ; 1.613      ;
; 1.474 ; T_FF:T2|Q ; T_FF:T4|Q ; KEY[0]       ; KEY[0]      ; 0.000        ; 0.000      ; 1.760      ;
; 1.493 ; T_FF:T4|Q ; T_FF:T5|Q ; KEY[0]       ; KEY[0]      ; 0.000        ; 0.000      ; 1.779      ;
; 1.493 ; T_FF:T4|Q ; T_FF:T7|Q ; KEY[0]       ; KEY[0]      ; 0.000        ; 0.000      ; 1.779      ;
; 1.494 ; T_FF:T4|Q ; T_FF:T6|Q ; KEY[0]       ; KEY[0]      ; 0.000        ; 0.000      ; 1.780      ;
; 1.603 ; T_FF:T0|Q ; T_FF:T5|Q ; KEY[0]       ; KEY[0]      ; 0.000        ; 0.000      ; 1.889      ;
; 1.627 ; T_FF:T0|Q ; T_FF:T7|Q ; KEY[0]       ; KEY[0]      ; 0.000        ; 0.000      ; 1.913      ;
; 1.628 ; T_FF:T0|Q ; T_FF:T6|Q ; KEY[0]       ; KEY[0]      ; 0.000        ; 0.000      ; 1.914      ;
; 1.668 ; T_FF:T5|Q ; T_FF:T7|Q ; KEY[0]       ; KEY[0]      ; 0.000        ; 0.000      ; 1.954      ;
; 1.669 ; T_FF:T5|Q ; T_FF:T6|Q ; KEY[0]       ; KEY[0]      ; 0.000        ; 0.000      ; 1.955      ;
; 1.672 ; T_FF:T5|Q ; T_FF:T5|Q ; KEY[0]       ; KEY[0]      ; 0.000        ; 0.000      ; 1.958      ;
; 1.722 ; T_FF:T0|Q ; T_FF:T4|Q ; KEY[0]       ; KEY[0]      ; 0.000        ; 0.000      ; 2.008      ;
; 1.735 ; T_FF:T3|Q ; T_FF:T5|Q ; KEY[0]       ; KEY[0]      ; 0.000        ; 0.000      ; 2.021      ;
; 1.744 ; T_FF:T1|Q ; T_FF:T5|Q ; KEY[0]       ; KEY[0]      ; 0.000        ; 0.000      ; 2.030      ;
; 1.767 ; T_FF:T3|Q ; T_FF:T7|Q ; KEY[0]       ; KEY[0]      ; 0.000        ; 0.000      ; 2.053      ;
; 1.768 ; T_FF:T3|Q ; T_FF:T6|Q ; KEY[0]       ; KEY[0]      ; 0.000        ; 0.000      ; 2.054      ;
; 1.768 ; T_FF:T1|Q ; T_FF:T7|Q ; KEY[0]       ; KEY[0]      ; 0.000        ; 0.000      ; 2.054      ;
; 1.769 ; T_FF:T1|Q ; T_FF:T6|Q ; KEY[0]       ; KEY[0]      ; 0.000        ; 0.000      ; 2.055      ;
; 1.863 ; T_FF:T1|Q ; T_FF:T4|Q ; KEY[0]       ; KEY[0]      ; 0.000        ; 0.000      ; 2.149      ;
; 1.882 ; T_FF:T2|Q ; T_FF:T5|Q ; KEY[0]       ; KEY[0]      ; 0.000        ; 0.000      ; 2.168      ;
; 1.914 ; T_FF:T2|Q ; T_FF:T7|Q ; KEY[0]       ; KEY[0]      ; 0.000        ; 0.000      ; 2.200      ;
; 1.915 ; T_FF:T2|Q ; T_FF:T6|Q ; KEY[0]       ; KEY[0]      ; 0.000        ; 0.000      ; 2.201      ;
+-------+-----------+-----------+--------------+-------------+--------------+------------+------------+


+--------------------------------------------------------------------------------------------------+
; Slow Model Minimum Pulse Width: 'KEY[0]'                                                         ;
+--------+--------------+----------------+------------------+--------+------------+----------------+
; Slack  ; Actual Width ; Required Width ; Type             ; Clock  ; Clock Edge ; Target         ;
+--------+--------------+----------------+------------------+--------+------------+----------------+
; -1.469 ; 1.000        ; 2.469          ; Port Rate        ; KEY[0] ; Rise       ; KEY[0]         ;
; -0.611 ; 0.500        ; 1.111          ; High Pulse Width ; KEY[0] ; Rise       ; T_FF:T0|Q      ;
; -0.611 ; 0.500        ; 1.111          ; Low Pulse Width  ; KEY[0] ; Rise       ; T_FF:T0|Q      ;
; -0.611 ; 0.500        ; 1.111          ; High Pulse Width ; KEY[0] ; Rise       ; T_FF:T1|Q      ;
; -0.611 ; 0.500        ; 1.111          ; Low Pulse Width  ; KEY[0] ; Rise       ; T_FF:T1|Q      ;
; -0.611 ; 0.500        ; 1.111          ; High Pulse Width ; KEY[0] ; Rise       ; T_FF:T2|Q      ;
; -0.611 ; 0.500        ; 1.111          ; Low Pulse Width  ; KEY[0] ; Rise       ; T_FF:T2|Q      ;
; -0.611 ; 0.500        ; 1.111          ; High Pulse Width ; KEY[0] ; Rise       ; T_FF:T3|Q      ;
; -0.611 ; 0.500        ; 1.111          ; Low Pulse Width  ; KEY[0] ; Rise       ; T_FF:T3|Q      ;
; -0.611 ; 0.500        ; 1.111          ; High Pulse Width ; KEY[0] ; Rise       ; T_FF:T4|Q      ;
; -0.611 ; 0.500        ; 1.111          ; Low Pulse Width  ; KEY[0] ; Rise       ; T_FF:T4|Q      ;
; -0.611 ; 0.500        ; 1.111          ; High Pulse Width ; KEY[0] ; Rise       ; T_FF:T5|Q      ;
; -0.611 ; 0.500        ; 1.111          ; Low Pulse Width  ; KEY[0] ; Rise       ; T_FF:T5|Q      ;
; -0.611 ; 0.500        ; 1.111          ; High Pulse Width ; KEY[0] ; Rise       ; T_FF:T6|Q      ;
; -0.611 ; 0.500        ; 1.111          ; Low Pulse Width  ; KEY[0] ; Rise       ; T_FF:T6|Q      ;
; -0.611 ; 0.500        ; 1.111          ; High Pulse Width ; KEY[0] ; Rise       ; T_FF:T7|Q      ;
; -0.611 ; 0.500        ; 1.111          ; Low Pulse Width  ; KEY[0] ; Rise       ; T_FF:T7|Q      ;
; 0.500  ; 0.500        ; 0.000          ; High Pulse Width ; KEY[0] ; Rise       ; KEY[0]|combout ;
; 0.500  ; 0.500        ; 0.000          ; Low Pulse Width  ; KEY[0] ; Rise       ; KEY[0]|combout ;
; 0.500  ; 0.500        ; 0.000          ; High Pulse Width ; KEY[0] ; Rise       ; T0|Q|clk       ;
; 0.500  ; 0.500        ; 0.000          ; Low Pulse Width  ; KEY[0] ; Rise       ; T0|Q|clk       ;
; 0.500  ; 0.500        ; 0.000          ; High Pulse Width ; KEY[0] ; Rise       ; T1|Q|clk       ;
; 0.500  ; 0.500        ; 0.000          ; Low Pulse Width  ; KEY[0] ; Rise       ; T1|Q|clk       ;
; 0.500  ; 0.500        ; 0.000          ; High Pulse Width ; KEY[0] ; Rise       ; T2|Q|clk       ;
; 0.500  ; 0.500        ; 0.000          ; Low Pulse Width  ; KEY[0] ; Rise       ; T2|Q|clk       ;
; 0.500  ; 0.500        ; 0.000          ; High Pulse Width ; KEY[0] ; Rise       ; T3|Q|clk       ;
; 0.500  ; 0.500        ; 0.000          ; Low Pulse Width  ; KEY[0] ; Rise       ; T3|Q|clk       ;
; 0.500  ; 0.500        ; 0.000          ; High Pulse Width ; KEY[0] ; Rise       ; T4|Q|clk       ;
; 0.500  ; 0.500        ; 0.000          ; Low Pulse Width  ; KEY[0] ; Rise       ; T4|Q|clk       ;
; 0.500  ; 0.500        ; 0.000          ; High Pulse Width ; KEY[0] ; Rise       ; T5|Q|clk       ;
; 0.500  ; 0.500        ; 0.000          ; Low Pulse Width  ; KEY[0] ; Rise       ; T5|Q|clk       ;
; 0.500  ; 0.500        ; 0.000          ; High Pulse Width ; KEY[0] ; Rise       ; T6|Q|clk       ;
; 0.500  ; 0.500        ; 0.000          ; Low Pulse Width  ; KEY[0] ; Rise       ; T6|Q|clk       ;
; 0.500  ; 0.500        ; 0.000          ; High Pulse Width ; KEY[0] ; Rise       ; T7|Q|clk       ;
; 0.500  ; 0.500        ; 0.000          ; Low Pulse Width  ; KEY[0] ; Rise       ; T7|Q|clk       ;
+--------+--------------+----------------+------------------+--------+------------+----------------+


+-------------------------------------------------------------------------+
; Setup Times                                                             ;
+-----------+------------+--------+--------+------------+-----------------+
; Data Port ; Clock Port ; Rise   ; Fall   ; Clock Edge ; Clock Reference ;
+-----------+------------+--------+--------+------------+-----------------+
; SW[*]     ; KEY[0]     ; 0.748  ; 0.748  ; Rise       ; KEY[0]          ;
;  SW[0]    ; KEY[0]     ; -0.362 ; -0.362 ; Rise       ; KEY[0]          ;
;  SW[1]    ; KEY[0]     ; 0.748  ; 0.748  ; Rise       ; KEY[0]          ;
+-----------+------------+--------+--------+------------+-----------------+


+-----------------------------------------------------------------------+
; Hold Times                                                            ;
+-----------+------------+-------+-------+------------+-----------------+
; Data Port ; Clock Port ; Rise  ; Fall  ; Clock Edge ; Clock Reference ;
+-----------+------------+-------+-------+------------+-----------------+
; SW[*]     ; KEY[0]     ; 0.931 ; 0.931 ; Rise       ; KEY[0]          ;
;  SW[0]    ; KEY[0]     ; 0.931 ; 0.931 ; Rise       ; KEY[0]          ;
;  SW[1]    ; KEY[0]     ; 0.563 ; 0.563 ; Rise       ; KEY[0]          ;
+-----------+------------+-------+-------+------------+-----------------+


+-------------------------------------------------------------------------+
; Clock to Output Times                                                   ;
+-----------+------------+--------+--------+------------+-----------------+
; Data Port ; Clock Port ; Rise   ; Fall   ; Clock Edge ; Clock Reference ;
+-----------+------------+--------+--------+------------+-----------------+
; HEX0[*]   ; KEY[0]     ; 15.667 ; 15.667 ; Rise       ; KEY[0]          ;
;  HEX0[0]  ; KEY[0]     ; 15.632 ; 15.632 ; Rise       ; KEY[0]          ;
;  HEX0[1]  ; KEY[0]     ; 15.667 ; 15.667 ; Rise       ; KEY[0]          ;
;  HEX0[2]  ; KEY[0]     ; 15.541 ; 15.541 ; Rise       ; KEY[0]          ;
;  HEX0[3]  ; KEY[0]     ; 15.648 ; 15.648 ; Rise       ; KEY[0]          ;
;  HEX0[4]  ; KEY[0]     ; 15.327 ; 15.327 ; Rise       ; KEY[0]          ;
;  HEX0[5]  ; KEY[0]     ; 15.242 ; 15.242 ; Rise       ; KEY[0]          ;
;  HEX0[6]  ; KEY[0]     ; 15.297 ; 15.297 ; Rise       ; KEY[0]          ;
; HEX1[*]   ; KEY[0]     ; 13.947 ; 13.947 ; Rise       ; KEY[0]          ;
;  HEX1[0]  ; KEY[0]     ; 13.165 ; 13.165 ; Rise       ; KEY[0]          ;
;  HEX1[1]  ; KEY[0]     ; 13.104 ; 13.104 ; Rise       ; KEY[0]          ;
;  HEX1[2]  ; KEY[0]     ; 13.066 ; 13.066 ; Rise       ; KEY[0]          ;
;  HEX1[3]  ; KEY[0]     ; 13.947 ; 13.947 ; Rise       ; KEY[0]          ;
;  HEX1[4]  ; KEY[0]     ; 13.082 ; 13.082 ; Rise       ; KEY[0]          ;
;  HEX1[5]  ; KEY[0]     ; 13.006 ; 13.006 ; Rise       ; KEY[0]          ;
;  HEX1[6]  ; KEY[0]     ; 13.008 ; 13.008 ; Rise       ; KEY[0]          ;
+-----------+------------+--------+--------+------------+-----------------+


+-------------------------------------------------------------------------+
; Minimum Clock to Output Times                                           ;
+-----------+------------+--------+--------+------------+-----------------+
; Data Port ; Clock Port ; Rise   ; Fall   ; Clock Edge ; Clock Reference ;
+-----------+------------+--------+--------+------------+-----------------+
; HEX0[*]   ; KEY[0]     ; 9.716  ; 9.716  ; Rise       ; KEY[0]          ;
;  HEX0[0]  ; KEY[0]     ; 10.033 ; 10.033 ; Rise       ; KEY[0]          ;
;  HEX0[1]  ; KEY[0]     ; 10.069 ; 10.069 ; Rise       ; KEY[0]          ;
;  HEX0[2]  ; KEY[0]     ; 9.943  ; 9.943  ; Rise       ; KEY[0]          ;
;  HEX0[3]  ; KEY[0]     ; 10.044 ; 10.044 ; Rise       ; KEY[0]          ;
;  HEX0[4]  ; KEY[0]     ; 9.729  ; 9.729  ; Rise       ; KEY[0]          ;
;  HEX0[5]  ; KEY[0]     ; 9.716  ; 9.716  ; Rise       ; KEY[0]          ;
;  HEX0[6]  ; KEY[0]     ; 9.717  ; 9.717  ; Rise       ; KEY[0]          ;
; HEX1[*]   ; KEY[0]     ; 9.708  ; 9.708  ; Rise       ; KEY[0]          ;
;  HEX1[0]  ; KEY[0]     ; 10.253 ; 10.253 ; Rise       ; KEY[0]          ;
;  HEX1[1]  ; KEY[0]     ; 10.557 ; 10.557 ; Rise       ; KEY[0]          ;
;  HEX1[2]  ; KEY[0]     ; 9.708  ; 9.708  ; Rise       ; KEY[0]          ;
;  HEX1[3]  ; KEY[0]     ; 10.552 ; 10.552 ; Rise       ; KEY[0]          ;
;  HEX1[4]  ; KEY[0]     ; 10.559 ; 10.559 ; Rise       ; KEY[0]          ;
;  HEX1[5]  ; KEY[0]     ; 10.045 ; 10.045 ; Rise       ; KEY[0]          ;
;  HEX1[6]  ; KEY[0]     ; 10.053 ; 10.053 ; Rise       ; KEY[0]          ;
+-----------+------------+--------+--------+------------+-----------------+


+--------------------------------+
; Fast Model Setup Summary       ;
+--------+-------+---------------+
; Clock  ; Slack ; End Point TNS ;
+--------+-------+---------------+
; KEY[0] ; 0.128 ; 0.000         ;
+--------+-------+---------------+


+--------------------------------+
; Fast Model Hold Summary        ;
+--------+-------+---------------+
; Clock  ; Slack ; End Point TNS ;
+--------+-------+---------------+
; KEY[0] ; 0.215 ; 0.000         ;
+--------+-------+---------------+


-------------------------------
; Fast Model Recovery Summary ;
-------------------------------
No paths to report.


------------------------------
; Fast Model Removal Summary ;
------------------------------
No paths to report.


+----------------------------------------+
; Fast Model Minimum Pulse Width Summary ;
+--------+--------+----------------------+
; Clock  ; Slack  ; End Point TNS        ;
+--------+--------+----------------------+
; KEY[0] ; -1.222 ; -9.222               ;
+--------+--------+----------------------+


+-----------------------------------------------------------------------------------------------------+
; Fast Model Setup: 'KEY[0]'                                                                          ;
+-------+-----------+-----------+--------------+-------------+--------------+------------+------------+
; Slack ; From Node ; To Node   ; Launch Clock ; Latch Clock ; Relationship ; Clock Skew ; Data Delay ;
+-------+-----------+-----------+--------------+-------------+--------------+------------+------------+
; 0.128 ; T_FF:T2|Q ; T_FF:T6|Q ; KEY[0]       ; KEY[0]      ; 1.000        ; 0.000      ; 0.904      ;
; 0.129 ; T_FF:T2|Q ; T_FF:T7|Q ; KEY[0]       ; KEY[0]      ; 1.000        ; 0.000      ; 0.903      ;
; 0.174 ; T_FF:T2|Q ; T_FF:T5|Q ; KEY[0]       ; KEY[0]      ; 1.000        ; 0.000      ; 0.858      ;
; 0.175 ; T_FF:T1|Q ; T_FF:T4|Q ; KEY[0]       ; KEY[0]      ; 1.000        ; 0.000      ; 0.857      ;
; 0.205 ; T_FF:T3|Q ; T_FF:T6|Q ; KEY[0]       ; KEY[0]      ; 1.000        ; 0.000      ; 0.827      ;
; 0.206 ; T_FF:T3|Q ; T_FF:T7|Q ; KEY[0]       ; KEY[0]      ; 1.000        ; 0.000      ; 0.826      ;
; 0.207 ; T_FF:T1|Q ; T_FF:T6|Q ; KEY[0]       ; KEY[0]      ; 1.000        ; 0.000      ; 0.825      ;
; 0.208 ; T_FF:T1|Q ; T_FF:T7|Q ; KEY[0]       ; KEY[0]      ; 1.000        ; 0.000      ; 0.824      ;
; 0.221 ; T_FF:T1|Q ; T_FF:T5|Q ; KEY[0]       ; KEY[0]      ; 1.000        ; 0.000      ; 0.811      ;
; 0.244 ; T_FF:T0|Q ; T_FF:T4|Q ; KEY[0]       ; KEY[0]      ; 1.000        ; 0.000      ; 0.788      ;
; 0.251 ; T_FF:T3|Q ; T_FF:T5|Q ; KEY[0]       ; KEY[0]      ; 1.000        ; 0.000      ; 0.781      ;
; 0.252 ; T_FF:T5|Q ; T_FF:T6|Q ; KEY[0]       ; KEY[0]      ; 1.000        ; 0.000      ; 0.780      ;
; 0.253 ; T_FF:T5|Q ; T_FF:T7|Q ; KEY[0]       ; KEY[0]      ; 1.000        ; 0.000      ; 0.779      ;
; 0.269 ; T_FF:T5|Q ; T_FF:T5|Q ; KEY[0]       ; KEY[0]      ; 1.000        ; 0.000      ; 0.763      ;
; 0.276 ; T_FF:T0|Q ; T_FF:T6|Q ; KEY[0]       ; KEY[0]      ; 1.000        ; 0.000      ; 0.756      ;
; 0.277 ; T_FF:T0|Q ; T_FF:T7|Q ; KEY[0]       ; KEY[0]      ; 1.000        ; 0.000      ; 0.755      ;
; 0.290 ; T_FF:T0|Q ; T_FF:T5|Q ; KEY[0]       ; KEY[0]      ; 1.000        ; 0.000      ; 0.742      ;
; 0.312 ; T_FF:T4|Q ; T_FF:T6|Q ; KEY[0]       ; KEY[0]      ; 1.000        ; 0.000      ; 0.720      ;
; 0.313 ; T_FF:T4|Q ; T_FF:T7|Q ; KEY[0]       ; KEY[0]      ; 1.000        ; 0.000      ; 0.719      ;
; 0.318 ; T_FF:T2|Q ; T_FF:T4|Q ; KEY[0]       ; KEY[0]      ; 1.000        ; 0.000      ; 0.714      ;
; 0.340 ; T_FF:T4|Q ; T_FF:T5|Q ; KEY[0]       ; KEY[0]      ; 1.000        ; 0.000      ; 0.692      ;
; 0.380 ; T_FF:T1|Q ; T_FF:T3|Q ; KEY[0]       ; KEY[0]      ; 1.000        ; 0.000      ; 0.652      ;
; 0.384 ; T_FF:T1|Q ; T_FF:T2|Q ; KEY[0]       ; KEY[0]      ; 1.000        ; 0.000      ; 0.648      ;
; 0.395 ; T_FF:T3|Q ; T_FF:T4|Q ; KEY[0]       ; KEY[0]      ; 1.000        ; 0.000      ; 0.637      ;
; 0.434 ; T_FF:T2|Q ; T_FF:T3|Q ; KEY[0]       ; KEY[0]      ; 1.000        ; 0.000      ; 0.598      ;
; 0.449 ; T_FF:T0|Q ; T_FF:T3|Q ; KEY[0]       ; KEY[0]      ; 1.000        ; 0.000      ; 0.583      ;
; 0.453 ; T_FF:T0|Q ; T_FF:T2|Q ; KEY[0]       ; KEY[0]      ; 1.000        ; 0.000      ; 0.579      ;
; 0.503 ; T_FF:T6|Q ; T_FF:T7|Q ; KEY[0]       ; KEY[0]      ; 1.000        ; 0.000      ; 0.529      ;
; 0.633 ; T_FF:T0|Q ; T_FF:T1|Q ; KEY[0]       ; KEY[0]      ; 1.000        ; 0.000      ; 0.399      ;
; 0.665 ; T_FF:T0|Q ; T_FF:T0|Q ; KEY[0]       ; KEY[0]      ; 1.000        ; 0.000      ; 0.367      ;
; 0.665 ; T_FF:T6|Q ; T_FF:T6|Q ; KEY[0]       ; KEY[0]      ; 1.000        ; 0.000      ; 0.367      ;
; 0.665 ; T_FF:T7|Q ; T_FF:T7|Q ; KEY[0]       ; KEY[0]      ; 1.000        ; 0.000      ; 0.367      ;
; 0.665 ; T_FF:T4|Q ; T_FF:T4|Q ; KEY[0]       ; KEY[0]      ; 1.000        ; 0.000      ; 0.367      ;
; 0.665 ; T_FF:T3|Q ; T_FF:T3|Q ; KEY[0]       ; KEY[0]      ; 1.000        ; 0.000      ; 0.367      ;
; 0.665 ; T_FF:T2|Q ; T_FF:T2|Q ; KEY[0]       ; KEY[0]      ; 1.000        ; 0.000      ; 0.367      ;
; 0.665 ; T_FF:T1|Q ; T_FF:T1|Q ; KEY[0]       ; KEY[0]      ; 1.000        ; 0.000      ; 0.367      ;
+-------+-----------+-----------+--------------+-------------+--------------+------------+------------+


+-----------------------------------------------------------------------------------------------------+
; Fast Model Hold: 'KEY[0]'                                                                           ;
+-------+-----------+-----------+--------------+-------------+--------------+------------+------------+
; Slack ; From Node ; To Node   ; Launch Clock ; Latch Clock ; Relationship ; Clock Skew ; Data Delay ;
+-------+-----------+-----------+--------------+-------------+--------------+------------+------------+
; 0.215 ; T_FF:T0|Q ; T_FF:T0|Q ; KEY[0]       ; KEY[0]      ; 0.000        ; 0.000      ; 0.367      ;
; 0.215 ; T_FF:T1|Q ; T_FF:T1|Q ; KEY[0]       ; KEY[0]      ; 0.000        ; 0.000      ; 0.367      ;
; 0.215 ; T_FF:T2|Q ; T_FF:T2|Q ; KEY[0]       ; KEY[0]      ; 0.000        ; 0.000      ; 0.367      ;
; 0.215 ; T_FF:T3|Q ; T_FF:T3|Q ; KEY[0]       ; KEY[0]      ; 0.000        ; 0.000      ; 0.367      ;
; 0.215 ; T_FF:T4|Q ; T_FF:T4|Q ; KEY[0]       ; KEY[0]      ; 0.000        ; 0.000      ; 0.367      ;
; 0.215 ; T_FF:T6|Q ; T_FF:T6|Q ; KEY[0]       ; KEY[0]      ; 0.000        ; 0.000      ; 0.367      ;
; 0.215 ; T_FF:T7|Q ; T_FF:T7|Q ; KEY[0]       ; KEY[0]      ; 0.000        ; 0.000      ; 0.367      ;
; 0.247 ; T_FF:T0|Q ; T_FF:T1|Q ; KEY[0]       ; KEY[0]      ; 0.000        ; 0.000      ; 0.399      ;
; 0.377 ; T_FF:T6|Q ; T_FF:T7|Q ; KEY[0]       ; KEY[0]      ; 0.000        ; 0.000      ; 0.529      ;
; 0.427 ; T_FF:T0|Q ; T_FF:T2|Q ; KEY[0]       ; KEY[0]      ; 0.000        ; 0.000      ; 0.579      ;
; 0.431 ; T_FF:T0|Q ; T_FF:T3|Q ; KEY[0]       ; KEY[0]      ; 0.000        ; 0.000      ; 0.583      ;
; 0.446 ; T_FF:T2|Q ; T_FF:T3|Q ; KEY[0]       ; KEY[0]      ; 0.000        ; 0.000      ; 0.598      ;
; 0.485 ; T_FF:T3|Q ; T_FF:T4|Q ; KEY[0]       ; KEY[0]      ; 0.000        ; 0.000      ; 0.637      ;
; 0.496 ; T_FF:T1|Q ; T_FF:T2|Q ; KEY[0]       ; KEY[0]      ; 0.000        ; 0.000      ; 0.648      ;
; 0.500 ; T_FF:T1|Q ; T_FF:T3|Q ; KEY[0]       ; KEY[0]      ; 0.000        ; 0.000      ; 0.652      ;
; 0.540 ; T_FF:T4|Q ; T_FF:T5|Q ; KEY[0]       ; KEY[0]      ; 0.000        ; 0.000      ; 0.692      ;
; 0.562 ; T_FF:T2|Q ; T_FF:T4|Q ; KEY[0]       ; KEY[0]      ; 0.000        ; 0.000      ; 0.714      ;
; 0.567 ; T_FF:T4|Q ; T_FF:T7|Q ; KEY[0]       ; KEY[0]      ; 0.000        ; 0.000      ; 0.719      ;
; 0.568 ; T_FF:T4|Q ; T_FF:T6|Q ; KEY[0]       ; KEY[0]      ; 0.000        ; 0.000      ; 0.720      ;
; 0.590 ; T_FF:T0|Q ; T_FF:T5|Q ; KEY[0]       ; KEY[0]      ; 0.000        ; 0.000      ; 0.742      ;
; 0.603 ; T_FF:T0|Q ; T_FF:T7|Q ; KEY[0]       ; KEY[0]      ; 0.000        ; 0.000      ; 0.755      ;
; 0.604 ; T_FF:T0|Q ; T_FF:T6|Q ; KEY[0]       ; KEY[0]      ; 0.000        ; 0.000      ; 0.756      ;
; 0.611 ; T_FF:T5|Q ; T_FF:T5|Q ; KEY[0]       ; KEY[0]      ; 0.000        ; 0.000      ; 0.763      ;
; 0.627 ; T_FF:T5|Q ; T_FF:T7|Q ; KEY[0]       ; KEY[0]      ; 0.000        ; 0.000      ; 0.779      ;
; 0.628 ; T_FF:T5|Q ; T_FF:T6|Q ; KEY[0]       ; KEY[0]      ; 0.000        ; 0.000      ; 0.780      ;
; 0.629 ; T_FF:T3|Q ; T_FF:T5|Q ; KEY[0]       ; KEY[0]      ; 0.000        ; 0.000      ; 0.781      ;
; 0.636 ; T_FF:T0|Q ; T_FF:T4|Q ; KEY[0]       ; KEY[0]      ; 0.000        ; 0.000      ; 0.788      ;
; 0.659 ; T_FF:T1|Q ; T_FF:T5|Q ; KEY[0]       ; KEY[0]      ; 0.000        ; 0.000      ; 0.811      ;
; 0.672 ; T_FF:T1|Q ; T_FF:T7|Q ; KEY[0]       ; KEY[0]      ; 0.000        ; 0.000      ; 0.824      ;
; 0.673 ; T_FF:T1|Q ; T_FF:T6|Q ; KEY[0]       ; KEY[0]      ; 0.000        ; 0.000      ; 0.825      ;
; 0.674 ; T_FF:T3|Q ; T_FF:T7|Q ; KEY[0]       ; KEY[0]      ; 0.000        ; 0.000      ; 0.826      ;
; 0.675 ; T_FF:T3|Q ; T_FF:T6|Q ; KEY[0]       ; KEY[0]      ; 0.000        ; 0.000      ; 0.827      ;
; 0.705 ; T_FF:T1|Q ; T_FF:T4|Q ; KEY[0]       ; KEY[0]      ; 0.000        ; 0.000      ; 0.857      ;
; 0.706 ; T_FF:T2|Q ; T_FF:T5|Q ; KEY[0]       ; KEY[0]      ; 0.000        ; 0.000      ; 0.858      ;
; 0.751 ; T_FF:T2|Q ; T_FF:T7|Q ; KEY[0]       ; KEY[0]      ; 0.000        ; 0.000      ; 0.903      ;
; 0.752 ; T_FF:T2|Q ; T_FF:T6|Q ; KEY[0]       ; KEY[0]      ; 0.000        ; 0.000      ; 0.904      ;
+-------+-----------+-----------+--------------+-------------+--------------+------------+------------+


+--------------------------------------------------------------------------------------------------+
; Fast Model Minimum Pulse Width: 'KEY[0]'                                                         ;
+--------+--------------+----------------+------------------+--------+------------+----------------+
; Slack  ; Actual Width ; Required Width ; Type             ; Clock  ; Clock Edge ; Target         ;
+--------+--------------+----------------+------------------+--------+------------+----------------+
; -1.222 ; 1.000        ; 2.222          ; Port Rate        ; KEY[0] ; Rise       ; KEY[0]         ;
; -0.500 ; 0.500        ; 1.000          ; High Pulse Width ; KEY[0] ; Rise       ; T_FF:T0|Q      ;
; -0.500 ; 0.500        ; 1.000          ; Low Pulse Width  ; KEY[0] ; Rise       ; T_FF:T0|Q      ;
; -0.500 ; 0.500        ; 1.000          ; High Pulse Width ; KEY[0] ; Rise       ; T_FF:T1|Q      ;
; -0.500 ; 0.500        ; 1.000          ; Low Pulse Width  ; KEY[0] ; Rise       ; T_FF:T1|Q      ;
; -0.500 ; 0.500        ; 1.000          ; High Pulse Width ; KEY[0] ; Rise       ; T_FF:T2|Q      ;
; -0.500 ; 0.500        ; 1.000          ; Low Pulse Width  ; KEY[0] ; Rise       ; T_FF:T2|Q      ;
; -0.500 ; 0.500        ; 1.000          ; High Pulse Width ; KEY[0] ; Rise       ; T_FF:T3|Q      ;
; -0.500 ; 0.500        ; 1.000          ; Low Pulse Width  ; KEY[0] ; Rise       ; T_FF:T3|Q      ;
; -0.500 ; 0.500        ; 1.000          ; High Pulse Width ; KEY[0] ; Rise       ; T_FF:T4|Q      ;
; -0.500 ; 0.500        ; 1.000          ; Low Pulse Width  ; KEY[0] ; Rise       ; T_FF:T4|Q      ;
; -0.500 ; 0.500        ; 1.000          ; High Pulse Width ; KEY[0] ; Rise       ; T_FF:T5|Q      ;
; -0.500 ; 0.500        ; 1.000          ; Low Pulse Width  ; KEY[0] ; Rise       ; T_FF:T5|Q      ;
; -0.500 ; 0.500        ; 1.000          ; High Pulse Width ; KEY[0] ; Rise       ; T_FF:T6|Q      ;
; -0.500 ; 0.500        ; 1.000          ; Low Pulse Width  ; KEY[0] ; Rise       ; T_FF:T6|Q      ;
; -0.500 ; 0.500        ; 1.000          ; High Pulse Width ; KEY[0] ; Rise       ; T_FF:T7|Q      ;
; -0.500 ; 0.500        ; 1.000          ; Low Pulse Width  ; KEY[0] ; Rise       ; T_FF:T7|Q      ;
; 0.500  ; 0.500        ; 0.000          ; High Pulse Width ; KEY[0] ; Rise       ; KEY[0]|combout ;
; 0.500  ; 0.500        ; 0.000          ; Low Pulse Width  ; KEY[0] ; Rise       ; KEY[0]|combout ;
; 0.500  ; 0.500        ; 0.000          ; High Pulse Width ; KEY[0] ; Rise       ; T0|Q|clk       ;
; 0.500  ; 0.500        ; 0.000          ; Low Pulse Width  ; KEY[0] ; Rise       ; T0|Q|clk       ;
; 0.500  ; 0.500        ; 0.000          ; High Pulse Width ; KEY[0] ; Rise       ; T1|Q|clk       ;
; 0.500  ; 0.500        ; 0.000          ; Low Pulse Width  ; KEY[0] ; Rise       ; T1|Q|clk       ;
; 0.500  ; 0.500        ; 0.000          ; High Pulse Width ; KEY[0] ; Rise       ; T2|Q|clk       ;
; 0.500  ; 0.500        ; 0.000          ; Low Pulse Width  ; KEY[0] ; Rise       ; T2|Q|clk       ;
; 0.500  ; 0.500        ; 0.000          ; High Pulse Width ; KEY[0] ; Rise       ; T3|Q|clk       ;
; 0.500  ; 0.500        ; 0.000          ; Low Pulse Width  ; KEY[0] ; Rise       ; T3|Q|clk       ;
; 0.500  ; 0.500        ; 0.000          ; High Pulse Width ; KEY[0] ; Rise       ; T4|Q|clk       ;
; 0.500  ; 0.500        ; 0.000          ; Low Pulse Width  ; KEY[0] ; Rise       ; T4|Q|clk       ;
; 0.500  ; 0.500        ; 0.000          ; High Pulse Width ; KEY[0] ; Rise       ; T5|Q|clk       ;
; 0.500  ; 0.500        ; 0.000          ; Low Pulse Width  ; KEY[0] ; Rise       ; T5|Q|clk       ;
; 0.500  ; 0.500        ; 0.000          ; High Pulse Width ; KEY[0] ; Rise       ; T6|Q|clk       ;
; 0.500  ; 0.500        ; 0.000          ; Low Pulse Width  ; KEY[0] ; Rise       ; T6|Q|clk       ;
; 0.500  ; 0.500        ; 0.000          ; High Pulse Width ; KEY[0] ; Rise       ; T7|Q|clk       ;
; 0.500  ; 0.500        ; 0.000          ; Low Pulse Width  ; KEY[0] ; Rise       ; T7|Q|clk       ;
+--------+--------------+----------------+------------------+--------+------------+----------------+


+-------------------------------------------------------------------------+
; Setup Times                                                             ;
+-----------+------------+--------+--------+------------+-----------------+
; Data Port ; Clock Port ; Rise   ; Fall   ; Clock Edge ; Clock Reference ;
+-----------+------------+--------+--------+------------+-----------------+
; SW[*]     ; KEY[0]     ; 0.097  ; 0.097  ; Rise       ; KEY[0]          ;
;  SW[0]    ; KEY[0]     ; -0.291 ; -0.291 ; Rise       ; KEY[0]          ;
;  SW[1]    ; KEY[0]     ; 0.097  ; 0.097  ; Rise       ; KEY[0]          ;
+-----------+------------+--------+--------+------------+-----------------+


+-----------------------------------------------------------------------+
; Hold Times                                                            ;
+-----------+------------+-------+-------+------------+-----------------+
; Data Port ; Clock Port ; Rise  ; Fall  ; Clock Edge ; Clock Reference ;
+-----------+------------+-------+-------+------------+-----------------+
; SW[*]     ; KEY[0]     ; 0.552 ; 0.552 ; Rise       ; KEY[0]          ;
;  SW[0]    ; KEY[0]     ; 0.552 ; 0.552 ; Rise       ; KEY[0]          ;
;  SW[1]    ; KEY[0]     ; 0.418 ; 0.418 ; Rise       ; KEY[0]          ;
+-----------+------------+-------+-------+------------+-----------------+


+-----------------------------------------------------------------------+
; Clock to Output Times                                                 ;
+-----------+------------+-------+-------+------------+-----------------+
; Data Port ; Clock Port ; Rise  ; Fall  ; Clock Edge ; Clock Reference ;
+-----------+------------+-------+-------+------------+-----------------+
; HEX0[*]   ; KEY[0]     ; 6.627 ; 6.627 ; Rise       ; KEY[0]          ;
;  HEX0[0]  ; KEY[0]     ; 6.597 ; 6.597 ; Rise       ; KEY[0]          ;
;  HEX0[1]  ; KEY[0]     ; 6.627 ; 6.627 ; Rise       ; KEY[0]          ;
;  HEX0[2]  ; KEY[0]     ; 6.566 ; 6.566 ; Rise       ; KEY[0]          ;
;  HEX0[3]  ; KEY[0]     ; 6.621 ; 6.621 ; Rise       ; KEY[0]          ;
;  HEX0[4]  ; KEY[0]     ; 6.500 ; 6.500 ; Rise       ; KEY[0]          ;
;  HEX0[5]  ; KEY[0]     ; 6.504 ; 6.504 ; Rise       ; KEY[0]          ;
;  HEX0[6]  ; KEY[0]     ; 6.509 ; 6.509 ; Rise       ; KEY[0]          ;
; HEX1[*]   ; KEY[0]     ; 6.054 ; 6.054 ; Rise       ; KEY[0]          ;
;  HEX1[0]  ; KEY[0]     ; 5.804 ; 5.804 ; Rise       ; KEY[0]          ;
;  HEX1[1]  ; KEY[0]     ; 5.758 ; 5.758 ; Rise       ; KEY[0]          ;
;  HEX1[2]  ; KEY[0]     ; 5.722 ; 5.722 ; Rise       ; KEY[0]          ;
;  HEX1[3]  ; KEY[0]     ; 6.054 ; 6.054 ; Rise       ; KEY[0]          ;
;  HEX1[4]  ; KEY[0]     ; 5.739 ; 5.739 ; Rise       ; KEY[0]          ;
;  HEX1[5]  ; KEY[0]     ; 5.714 ; 5.714 ; Rise       ; KEY[0]          ;
;  HEX1[6]  ; KEY[0]     ; 5.713 ; 5.713 ; Rise       ; KEY[0]          ;
+-----------+------------+-------+-------+------------+-----------------+


+-----------------------------------------------------------------------+
; Minimum Clock to Output Times                                         ;
+-----------+------------+-------+-------+------------+-----------------+
; Data Port ; Clock Port ; Rise  ; Fall  ; Clock Edge ; Clock Reference ;
+-----------+------------+-------+-------+------------+-----------------+
; HEX0[*]   ; KEY[0]     ; 4.485 ; 4.485 ; Rise       ; KEY[0]          ;
;  HEX0[0]  ; KEY[0]     ; 4.585 ; 4.585 ; Rise       ; KEY[0]          ;
;  HEX0[1]  ; KEY[0]     ; 4.617 ; 4.617 ; Rise       ; KEY[0]          ;
;  HEX0[2]  ; KEY[0]     ; 4.557 ; 4.557 ; Rise       ; KEY[0]          ;
;  HEX0[3]  ; KEY[0]     ; 4.606 ; 4.606 ; Rise       ; KEY[0]          ;
;  HEX0[4]  ; KEY[0]     ; 4.496 ; 4.496 ; Rise       ; KEY[0]          ;
;  HEX0[5]  ; KEY[0]     ; 4.485 ; 4.485 ; Rise       ; KEY[0]          ;
;  HEX0[6]  ; KEY[0]     ; 4.490 ; 4.490 ; Rise       ; KEY[0]          ;
; HEX1[*]   ; KEY[0]     ; 4.482 ; 4.482 ; Rise       ; KEY[0]          ;
;  HEX1[0]  ; KEY[0]     ; 4.727 ; 4.727 ; Rise       ; KEY[0]          ;
;  HEX1[1]  ; KEY[0]     ; 4.791 ; 4.791 ; Rise       ; KEY[0]          ;
;  HEX1[2]  ; KEY[0]     ; 4.482 ; 4.482 ; Rise       ; KEY[0]          ;
;  HEX1[3]  ; KEY[0]     ; 4.788 ; 4.788 ; Rise       ; KEY[0]          ;
;  HEX1[4]  ; KEY[0]     ; 4.792 ; 4.792 ; Rise       ; KEY[0]          ;
;  HEX1[5]  ; KEY[0]     ; 4.617 ; 4.617 ; Rise       ; KEY[0]          ;
;  HEX1[6]  ; KEY[0]     ; 4.624 ; 4.624 ; Rise       ; KEY[0]          ;
+-----------+------------+-------+-------+------------+-----------------+


+------------------------------------------------------------------------------+
; Multicorner Timing Analysis Summary                                          ;
+------------------+--------+-------+----------+---------+---------------------+
; Clock            ; Setup  ; Hold  ; Recovery ; Removal ; Minimum Pulse Width ;
+------------------+--------+-------+----------+---------+---------------------+
; Worst-case Slack ; -1.163 ; 0.215 ; N/A      ; N/A     ; -1.469              ;
;  KEY[0]          ; -1.163 ; 0.215 ; N/A      ; N/A     ; -1.469              ;
; Design-wide TNS  ; -5.623 ; 0.0   ; 0.0      ; 0.0     ; -11.245             ;
;  KEY[0]          ; -5.623 ; 0.000 ; N/A      ; N/A     ; -11.245             ;
+------------------+--------+-------+----------+---------+---------------------+


+-------------------------------------------------------------------------+
; Setup Times                                                             ;
+-----------+------------+--------+--------+------------+-----------------+
; Data Port ; Clock Port ; Rise   ; Fall   ; Clock Edge ; Clock Reference ;
+-----------+------------+--------+--------+------------+-----------------+
; SW[*]     ; KEY[0]     ; 0.748  ; 0.748  ; Rise       ; KEY[0]          ;
;  SW[0]    ; KEY[0]     ; -0.291 ; -0.291 ; Rise       ; KEY[0]          ;
;  SW[1]    ; KEY[0]     ; 0.748  ; 0.748  ; Rise       ; KEY[0]          ;
+-----------+------------+--------+--------+------------+-----------------+


+-----------------------------------------------------------------------+
; Hold Times                                                            ;
+-----------+------------+-------+-------+------------+-----------------+
; Data Port ; Clock Port ; Rise  ; Fall  ; Clock Edge ; Clock Reference ;
+-----------+------------+-------+-------+------------+-----------------+
; SW[*]     ; KEY[0]     ; 0.931 ; 0.931 ; Rise       ; KEY[0]          ;
;  SW[0]    ; KEY[0]     ; 0.931 ; 0.931 ; Rise       ; KEY[0]          ;
;  SW[1]    ; KEY[0]     ; 0.563 ; 0.563 ; Rise       ; KEY[0]          ;
+-----------+------------+-------+-------+------------+-----------------+


+-------------------------------------------------------------------------+
; Clock to Output Times                                                   ;
+-----------+------------+--------+--------+------------+-----------------+
; Data Port ; Clock Port ; Rise   ; Fall   ; Clock Edge ; Clock Reference ;
+-----------+------------+--------+--------+------------+-----------------+
; HEX0[*]   ; KEY[0]     ; 15.667 ; 15.667 ; Rise       ; KEY[0]          ;
;  HEX0[0]  ; KEY[0]     ; 15.632 ; 15.632 ; Rise       ; KEY[0]          ;
;  HEX0[1]  ; KEY[0]     ; 15.667 ; 15.667 ; Rise       ; KEY[0]          ;
;  HEX0[2]  ; KEY[0]     ; 15.541 ; 15.541 ; Rise       ; KEY[0]          ;
;  HEX0[3]  ; KEY[0]     ; 15.648 ; 15.648 ; Rise       ; KEY[0]          ;
;  HEX0[4]  ; KEY[0]     ; 15.327 ; 15.327 ; Rise       ; KEY[0]          ;
;  HEX0[5]  ; KEY[0]     ; 15.242 ; 15.242 ; Rise       ; KEY[0]          ;
;  HEX0[6]  ; KEY[0]     ; 15.297 ; 15.297 ; Rise       ; KEY[0]          ;
; HEX1[*]   ; KEY[0]     ; 13.947 ; 13.947 ; Rise       ; KEY[0]          ;
;  HEX1[0]  ; KEY[0]     ; 13.165 ; 13.165 ; Rise       ; KEY[0]          ;
;  HEX1[1]  ; KEY[0]     ; 13.104 ; 13.104 ; Rise       ; KEY[0]          ;
;  HEX1[2]  ; KEY[0]     ; 13.066 ; 13.066 ; Rise       ; KEY[0]          ;
;  HEX1[3]  ; KEY[0]     ; 13.947 ; 13.947 ; Rise       ; KEY[0]          ;
;  HEX1[4]  ; KEY[0]     ; 13.082 ; 13.082 ; Rise       ; KEY[0]          ;
;  HEX1[5]  ; KEY[0]     ; 13.006 ; 13.006 ; Rise       ; KEY[0]          ;
;  HEX1[6]  ; KEY[0]     ; 13.008 ; 13.008 ; Rise       ; KEY[0]          ;
+-----------+------------+--------+--------+------------+-----------------+


+-----------------------------------------------------------------------+
; Minimum Clock to Output Times                                         ;
+-----------+------------+-------+-------+------------+-----------------+
; Data Port ; Clock Port ; Rise  ; Fall  ; Clock Edge ; Clock Reference ;
+-----------+------------+-------+-------+------------+-----------------+
; HEX0[*]   ; KEY[0]     ; 4.485 ; 4.485 ; Rise       ; KEY[0]          ;
;  HEX0[0]  ; KEY[0]     ; 4.585 ; 4.585 ; Rise       ; KEY[0]          ;
;  HEX0[1]  ; KEY[0]     ; 4.617 ; 4.617 ; Rise       ; KEY[0]          ;
;  HEX0[2]  ; KEY[0]     ; 4.557 ; 4.557 ; Rise       ; KEY[0]          ;
;  HEX0[3]  ; KEY[0]     ; 4.606 ; 4.606 ; Rise       ; KEY[0]          ;
;  HEX0[4]  ; KEY[0]     ; 4.496 ; 4.496 ; Rise       ; KEY[0]          ;
;  HEX0[5]  ; KEY[0]     ; 4.485 ; 4.485 ; Rise       ; KEY[0]          ;
;  HEX0[6]  ; KEY[0]     ; 4.490 ; 4.490 ; Rise       ; KEY[0]          ;
; HEX1[*]   ; KEY[0]     ; 4.482 ; 4.482 ; Rise       ; KEY[0]          ;
;  HEX1[0]  ; KEY[0]     ; 4.727 ; 4.727 ; Rise       ; KEY[0]          ;
;  HEX1[1]  ; KEY[0]     ; 4.791 ; 4.791 ; Rise       ; KEY[0]          ;
;  HEX1[2]  ; KEY[0]     ; 4.482 ; 4.482 ; Rise       ; KEY[0]          ;
;  HEX1[3]  ; KEY[0]     ; 4.788 ; 4.788 ; Rise       ; KEY[0]          ;
;  HEX1[4]  ; KEY[0]     ; 4.792 ; 4.792 ; Rise       ; KEY[0]          ;
;  HEX1[5]  ; KEY[0]     ; 4.617 ; 4.617 ; Rise       ; KEY[0]          ;
;  HEX1[6]  ; KEY[0]     ; 4.624 ; 4.624 ; Rise       ; KEY[0]          ;
+-----------+------------+-------+-------+------------+-----------------+


+-------------------------------------------------------------------+
; Setup Transfers                                                   ;
+------------+----------+----------+----------+----------+----------+
; From Clock ; To Clock ; RR Paths ; FR Paths ; RF Paths ; FF Paths ;
+------------+----------+----------+----------+----------+----------+
; KEY[0]     ; KEY[0]   ; 36       ; 0        ; 0        ; 0        ;
+------------+----------+----------+----------+----------+----------+
Entries labeled "false path" only account for clock-to-clock false paths and not path-based false paths. As a result, actual path counts may be lower than reported.


+-------------------------------------------------------------------+
; Hold Transfers                                                    ;
+------------+----------+----------+----------+----------+----------+
; From Clock ; To Clock ; RR Paths ; FR Paths ; RF Paths ; FF Paths ;
+------------+----------+----------+----------+----------+----------+
; KEY[0]     ; KEY[0]   ; 36       ; 0        ; 0        ; 0        ;
+------------+----------+----------+----------+----------+----------+
Entries labeled "false path" only account for clock-to-clock false paths and not path-based false paths. As a result, actual path counts may be lower than reported.


---------------
; Report TCCS ;
---------------
No dedicated SERDES Transmitter circuitry present in device or used in design


---------------
; Report RSKM ;
---------------
No dedicated SERDES Receiver circuitry present in device or used in design


+------------------------------------------------+
; Unconstrained Paths                            ;
+---------------------------------+-------+------+
; Property                        ; Setup ; Hold ;
+---------------------------------+-------+------+
; Illegal Clocks                  ; 0     ; 0    ;
; Unconstrained Clocks            ; 0     ; 0    ;
; Unconstrained Input Ports       ; 2     ; 2    ;
; Unconstrained Input Port Paths  ; 16    ; 16   ;
; Unconstrained Output Ports      ; 14    ; 14   ;
; Unconstrained Output Port Paths ; 105   ; 105  ;
+---------------------------------+-------+------+


+------------------------------------+
; TimeQuest Timing Analyzer Messages ;
+------------------------------------+
Info: *******************************************************************
Info: Running Quartus II 64-Bit TimeQuest Timing Analyzer
    Info: Version 13.0.1 Build 232 06/12/2013 Service Pack 1 SJ Web Edition
    Info: Processing started: Tue Sep 02 14:06:24 2014
Info: Command: quartus_sta part1_TCounter -c part1_TCounter
Info: qsta_default_script.tcl version: #1
Warning (20028): Parallel compilation is not licensed and has been disabled
Info (21077): Low junction temperature is 0 degrees C
Info (21077): High junction temperature is 85 degrees C
Critical Warning (332012): Synopsys Design Constraints File file not found: 'part1_TCounter.sdc'. A Synopsys Design Constraints File is required by the TimeQuest Timing Analyzer to get proper timing constraints. Without it, the Compiler will not properly optimize the design.
Info (332142): No user constrained base clocks found in the design. Calling "derive_clocks -period 1.0"
Info (332105): Deriving Clocks
    Info (332105): create_clock -period 1.000 -name KEY[0] KEY[0]
Info: Found TIMEQUEST_REPORT_SCRIPT_INCLUDE_DEFAULT_ANALYSIS = ON
Info: Analyzing Slow Model
Critical Warning (332148): Timing requirements not met
Info (332146): Worst-case setup slack is -1.163
    Info (332119):     Slack End Point TNS Clock 
    Info (332119): ========= ============= =====================
    Info (332119):    -1.163        -5.623 KEY[0] 
Info (332146): Worst-case hold slack is 0.445
    Info (332119):     Slack End Point TNS Clock 
    Info (332119): ========= ============= =====================
    Info (332119):     0.445         0.000 KEY[0] 
Info (332140): No Recovery paths to report
Info (332140): No Removal paths to report
Info (332146): Worst-case minimum pulse width slack is -1.469
    Info (332119):     Slack End Point TNS Clock 
    Info (332119): ========= ============= =====================
    Info (332119):    -1.469       -11.245 KEY[0] 
Info (332001): The selected device family is not supported by the report_metastability command.
Info: Analyzing Fast Model
Info (332146): Worst-case setup slack is 0.128
    Info (332119):     Slack End Point TNS Clock 
    Info (332119): ========= ============= =====================
    Info (332119):     0.128         0.000 KEY[0] 
Info (332146): Worst-case hold slack is 0.215
    Info (332119):     Slack End Point TNS Clock 
    Info (332119): ========= ============= =====================
    Info (332119):     0.215         0.000 KEY[0] 
Info (332140): No Recovery paths to report
Info (332140): No Removal paths to report
Critical Warning (332148): Timing requirements not met
Info (332146): Worst-case minimum pulse width slack is -1.222
    Info (332119):     Slack End Point TNS Clock 
    Info (332119): ========= ============= =====================
    Info (332119):    -1.222        -9.222 KEY[0] 
Info (332001): The selected device family is not supported by the report_metastability command.
Info (332102): Design is not fully constrained for setup requirements
Info (332102): Design is not fully constrained for hold requirements
Info: Quartus II 64-Bit TimeQuest Timing Analyzer was successful. 0 errors, 4 warnings
    Info: Peak virtual memory: 393 megabytes
    Info: Processing ended: Tue Sep 02 14:06:26 2014
    Info: Elapsed time: 00:00:02
    Info: Total CPU time (on all processors): 00:00:01


